…
                              y <- dplyr::filter(df_dyn, n_step == 50)
                              re <- dplyr::tibble(n_rep = i,
                                                  param_set[k,],
                                                  n50 = y$n)
                              
                              return(re)
                            } 
          
          return(df_rep)
        }

print(result)

## # A tibble: 400 × 4
##    n_rep lambda sd_eps   n50
##    <int>  <dbl>  <dbl> <dbl>
##  1     1    1.1    0.1 1620.
##  2     2    1.1    0.1  785.
##  3     3    1.1    0.1 1610.
##  4     4    1.1    0.1 1753.
##  5     5    1.1    0.1  277.
##  6     6    1.1    0.1 1443.
##  7     7    1.1    0.1 1076.
##  8     8    1.1    0.1 1211.
##  9     9    1.1    0.1 1004.
## 10    10    1.1    0.1  872.
## # … with 390 more rows
…
