RでGIS：ベクター | ECOSTATS
…
ポイントをポリゴンと紐づける。x で指定されるレイヤーに、yのレイヤーの情報を紐づける。紐づけの条件はいろいろ変えれるが、デフォルトでは両者のフィーチャが重なっている場合に紐づけされる。この例では、ポリゴンの中に含まれたポイントには情報が付加されたが、ポリゴン外にあるものについてはNAが充てられている。

sf_point_join <- st_join(x = sf_point, y = sf_nc1)

print(sf_point_join)

## Simple feature collection with 100 features and 3 fields
## Geometry type: POINT
## Dimension:     XY
## Bounding box:  xmin: 204256.4 ymin: 3754428 xmax: 996312.9 ymax: 4052070
## Projected CRS: WGS 84 / UTM zone 17N
## # A tibble: 100 x 4
##    point_id           geometry   area area_rank
##  *    <int>        <POINT [m]> [km^2]     <int>
##  1        1 (274315.9 3754428)    NA         NA
##  2        2 (380174.3 3966178)   800.        81
##  3        3 (625503.5 3779811)    NA         NA
##  4        4   (412217 3846444)    NA         NA
##  5        5 (900813.1 3916768)    NA         NA
##  6        6 (377444.6 3779822)    NA         NA
##  7        7 (814744.4 3793443)    NA         NA
##  8        8 (473135.7 3992062)  1985.        12
##  9        9 (385138.6 3825575)    NA         NA
## 10       10 (679189.7 3884326)  1739.        19
## # ... with 90 more rows
…
