…
print(df_temp)

## # A tibble: 100 × 2
##    NAME        temperature
##    <chr>             <dbl>
##  1 Ashe               10.5
##  2 Alleghany          11.1
##  3 Surry              13.9
##  4 Currituck          15.8
##  5 Northampton        15.8
##  6 Hertford           15.8
##  7 Camden             15.8
##  8 Gates              15.8
##  9 Warren             15.5
## 10 Stokes             14.4
## # ℹ 90 more rows
…
