…
df0 <- tibble(area = x,
              gamma = y,
              group = rep(letters[1:4], each = 25)) %>% 
  mutate(alpha = rbeta(length(y), 5, 5) * gamma,
         beta = gamma / alpha) %>% 
  pivot_longer(cols = c(alpha, beta, gamma),
               names_to = "metric",
               values_to = "diversity")

print(df0)

## # A tibble: 300 × 4
##     area group metric diversity
##    <dbl> <chr> <chr>      <dbl>
##  1  85.5 a     alpha      19.8 
##  2  85.5 a     beta        2.83
##  3  85.5 a     gamma      56   
##  4 272.  a     alpha      69.8 
##  5 272.  a     beta        1.43
##  6 272.  a     gamma     100   
##  7 927.  a     alpha      78.6 
##  8 927.  a     beta        1.79
##  9 927.  a     gamma     141   
## 10 374.  a     alpha      46.2 
## # … with 290 more rows
…
