…
  # add replicate number column
  df_subset <- df_subset %>% 
    mutate(n_rep = i)
  
  # combine replication subsets
  df_dynamics <- bind_rows(df_dynamics, df_subset)
  
}

print(df_dynamics)

## # A tibble: 250 x 3
##    n_step     n n_rep
##     <int> <dbl> <int>
##  1      1 10.       1
##  2      2  9.40     1
##  3      3 11.7      1
##  4      4 13.7      1
##  5      5 13.5      1
##  6      6 14.6      1
##  7      7 14.6      1
##  8      8 15.1      1
##  9      9 17.4      1
## 10     10 20.9      1
## # ... with 240 more rows
…
# summarize df_dynamics
df_summary <- df_dynamics %>% 
  group_by(n_step) %>% 
  summarize(log_mean_n = mean(log(n)), # mean of log-transformed n
            log_sd_n = sd(log(n))) %>%  # sd of log-transformed n
  mutate(log_upper = log_mean_n + log_sd_n,
         log_lower = log_mean_n - log_sd_n) %>% 
  mutate(mean_n = exp(log_mean_n),
         upper = exp(log_upper),
         lower = exp(log_lower))
  
print(df_summary)

## # A tibble: 50 x 8
##    n_step log_mean_n log_sd_n log_upper log_lower mean_n upper lower
##     <int>      <dbl>    <dbl>     <dbl>     <dbl>  <dbl> <dbl> <dbl>
##  1      1       2.30   0           2.30      2.30   10.   10.  10.  
##  2      2       2.38   0.125       2.50      2.25   10.8  12.2  9.50
##  3      3       2.52   0.120       2.64      2.40   12.4  14.0 11.0 
##  4      4       2.60   0.0885      2.69      2.51   13.4  14.7 12.3 
##  5      5       2.63   0.0597      2.69      2.57   13.8  14.7 13.0 
##  6      6       2.72   0.108       2.83      2.61   15.1  16.9 13.6 
##  7      7       2.78   0.118       2.90      2.67   16.2  18.2 14.4 
##  8      8       2.81   0.137       2.95      2.68   16.7  19.1 14.5 
##  9      9       2.89   0.182       3.07      2.71   18.0  21.5 15.0 
## 10     10       3.02   0.231       3.25      2.79   20.4  25.7 16.2 
## # ... with 40 more rows
…
